<?xml version="1.0" encoding="utf-8"?>
<!-- Generator: Adobe Illustrator 22.0.0, SVG Export Plug-In . SVG Version: 6.00 Build 0)  -->
<!DOCTYPE svg PUBLIC "-//W3C//DTD SVG 1.1//EN" "http://www.w3.org/Graphics/SVG/1.1/DTD/svg11.dtd">
<svg version="1.1" id="Layer_1" xmlns="http://www.w3.org/2000/svg" xmlns:xlink="http://www.w3.org/1999/xlink" x="0px" y="0px"
	 viewBox="0 0 158.3 158.3" style="enable-background:new 0 0 158.3 158.3;" xml:space="preserve">
<style type="text/css">
	.st0{fill:#FFFFFF;}
	.st1{fill:none;stroke:#2C3238;stroke-width:2.8346;stroke-miterlimit:10;}
	.st2{fill:none;stroke:#2C3238;stroke-width:2.5407;stroke-miterlimit:10;}
</style>
<circle class="st0" cx="79.1" cy="79.1" r="79.1"/>
<g>
	<polyline class="st1" points="34.5,48.9 46.8,48.9 59.1,98 100,98 109.8,58.5 57.8,58.5 	"/>
	<g>
		<circle class="st2" cx="62.5" cy="112.4" r="3.8"/>
		<circle class="st2" cx="95.5" cy="112.4" r="3.8"/>
	</g>
	<g>
		<line class="st2" x1="79" y1="70" x2="79" y2="88"/>
		<line class="st2" x1="88" y1="79" x2="70" y2="79"/>
	</g>
</g>
</svg>
